{
  "type": "minecraft:smithing",
  "base": {
    "item": "minecraft:iron_leggings"
  },
  "addition": {
    "item": "fossil_finders:sturdy_fossil"
  },
  "result": {
    "item": "fossil_finders:fossil_armor_leggings"
  }
}