{
  "_fv": 33,
  "_type": "procedure",
  "definition": {
    "procedurexml": "<xml xmlns=\"https://developers.google.com/blockly/xml\"><block type=\"event_trigger\" deletable=\"false\" x=\"40\" y=\"40\"><field name=\"trigger\">no_ext_trigger</field><next><block type=\"controls_if\"><value name=\"IF0\"><block type=\"logic_binary_ops\"><field name=\"OP\">OR</field><value name=\"A\"><block type=\"entity_has_item_inventory\"><value name=\"entity\"><block type=\"entity_from_deps\"></block></value><value name=\"item\"><block type=\"mcitem_all\"><field name=\"value\">CUSTOM:DirtFossil</field></block></value></block></value><value name=\"B\"><block type=\"entity_has_item_inventory\"><value name=\"entity\"><block type=\"entity_from_deps\"></block></value><value name=\"item\"><block type=\"mcitem_all\"><field name=\"value\">CUSTOM:DesertFossil</field></block></value></block></value></block></value><statement name=\"DO0\"><block type=\"entity_add_achievement\"><field name=\"achievement\">CUSTOM:FossilFound</field><value name=\"entity\"><block type=\"entity_from_deps\"></block></value></block></statement></block></next></block></xml>"
  }
}