{
  "_fv": 33,
  "_type": "recipe",
  "definition": {
    "recipeType": "Smithing",
    "xpReward": 0.0,
    "cookingTime": 200,
    "recipeRetstackSize": 1,
    "group": "",
    "recipeShapeless": false,
    "smithingInputStack": {
      "value": "Items.IRON_PICKAXE"
    },
    "smithingInputAdditionStack": {
      "value": "CUSTOM:SturdyFossil"
    },
    "smithingReturnStack": {
      "value": "CUSTOM:FossilPickaxe"
    },
    "name": "fossil_pickaxe_recipe",
    "namespace": "mod"
  }
}